<?xml version="1.0" encoding="UTF-8" standalone="no"?>
<!-- Created with Inkscape (http://www.inkscape.org/) -->

<svg
   xmlns:dc="http://purl.org/dc/elements/1.1/"
   xmlns:cc="http://creativecommons.org/ns#"
   xmlns:rdf="http://www.w3.org/1999/02/22-rdf-syntax-ns#"
   xmlns:svg="http://www.w3.org/2000/svg"
   xmlns="http://www.w3.org/2000/svg"
   xmlns:sodipodi="http://sodipodi.sourceforge.net/DTD/sodipodi-0.dtd"
   xmlns:inkscape="http://www.inkscape.org/namespaces/inkscape"
   width="171.15845mm"
   height="97.882362mm"
   viewBox="0 0 171.15845 97.882359"
   version="1.1"
   id="svg8"
   inkscape:version="0.92.3 (2405546, 2018-03-11)"
   sodipodi:docname="plan.svg">
  <defs
     id="defs2">
    <marker
       inkscape:stockid="Arrow1Lstart"
       orient="auto"
       refY="0"
       refX="0"
       id="Arrow1Lstart"
       style="overflow:visible"
       inkscape:isstock="true">
      <path
         id="path1976"
         d="M 0,0 5,-5 -12.5,0 5,5 Z"
         style="fill:#da261d;fill-opacity:1;fill-rule:evenodd;stroke:#da261d;stroke-width:1.00000003pt;stroke-opacity:1"
         transform="matrix(0.8,0,0,0.8,10,0)"
         inkscape:connector-curvature="0" />
    </marker>
    <marker
       inkscape:stockid="Arrow1Lend"
       orient="auto"
       refY="0"
       refX="0"
       id="Arrow1Lend"
       style="overflow:visible"
       inkscape:isstock="true">
      <path
         id="path1979"
         d="M 0,0 5,-5 -12.5,0 5,5 Z"
         style="fill:#da261d;fill-opacity:1;fill-rule:evenodd;stroke:#da261d;stroke-width:1.00000003pt;stroke-opacity:1"
         transform="matrix(-0.8,0,0,-0.8,-10,0)"
         inkscape:connector-curvature="0" />
    </marker>
  </defs>
  <sodipodi:namedview
     id="base"
     pagecolor="#ffffff"
     bordercolor="#666666"
     borderopacity="1.0"
     inkscape:pageopacity="0.0"
     inkscape:pageshadow="2"
     inkscape:zoom="9.6715095"
     inkscape:cx="547.81837"
     inkscape:cy="225.02478"
     inkscape:document-units="mm"
     inkscape:current-layer="layer1"
     showgrid="false"
     inkscape:window-width="1869"
     inkscape:window-height="1016"
     inkscape:window-x="51"
     inkscape:window-y="27"
     inkscape:window-maximized="1"
     fit-margin-top="0"
     fit-margin-left="0"
     fit-margin-right="0"
     fit-margin-bottom="0" />
  <metadata
     id="metadata5">
    <rdf:RDF>
      <cc:Work
         rdf:about="">
        <dc:format>image/svg+xml</dc:format>
        <dc:type
           rdf:resource="http://purl.org/dc/dcmitype/StillImage" />
        <dc:title></dc:title>
      </cc:Work>
    </rdf:RDF>
  </metadata>
  <g
     inkscape:label="Ebene 1"
     inkscape:groupmode="layer"
     id="layer1"
     transform="translate(-18.12676,-17.850031)">
    <rect
       style="opacity:1;vector-effect:none;fill:#137b85;fill-opacity:1;stroke:none;stroke-width:0.49999997;stroke-linecap:butt;stroke-linejoin:bevel;stroke-miterlimit:4;stroke-dasharray:none;stroke-dashoffset:0;stroke-opacity:1"
       id="rect2709"
       width="171.15845"
       height="97.882362"
       x="18.12676"
       y="17.850031" />
    <path
       id="path2522"
       style="fill:#ffffff;stroke:#000000;stroke-width:0.2;stroke-linecap:round;stroke-linejoin:round;stroke-miterlimit:4;stroke-dasharray:none;stroke-opacity:1"
       d="M 74.103656,100.29334 C 81.64974,78.653567 91.006828,57.688527 102.07551,37.620958 L 101.51258,36.54651 73.653309,34.744937 73.620276,35.2558 v 64.86897 z"
       inkscape:connector-curvature="0"
       sodipodi:nodetypes="ccccccc" />
    <path
       id="path1277"
       style="fill:none;stroke:#ff7e77;stroke-width:0.2;stroke-linecap:round;stroke-linejoin:round;stroke-miterlimit:4;stroke-dasharray:none;stroke-opacity:1"
       d="m 73.620276,35.2558 28.170504,1.821706"
       inkscape:connector-curvature="0" />
    <path
       id="path1293"
       style="fill:none;stroke:#ff7e77;stroke-width:0.2;stroke-linecap:round;stroke-linejoin:round;stroke-miterlimit:4;stroke-dasharray:none;stroke-opacity:1"
       d="m 73.620276,37.815455 a 2.5596557,2.559655 0 0 0 2.554317,-2.394477"
       inkscape:connector-curvature="0" />
    <path
       inkscape:connector-curvature="0"
       style="opacity:1;vector-effect:none;fill:none;fill-opacity:1;stroke:#ff7e77;stroke-width:0.2;stroke-linecap:butt;stroke-linejoin:bevel;stroke-miterlimit:4;stroke-dasharray:none;stroke-dashoffset:0;stroke-opacity:1"
       d="m 73.672037,87.93579 -1.1e-5,3e-6 c 1.557589,-0.474576 3.186848,0.299803 3.738682,1.739822"
       id="path1901" />
    <path
       id="path1279"
       style="fill:none;stroke:#ff7e77;stroke-width:0.2;stroke-linecap:round;stroke-linejoin:round;stroke-miterlimit:4;stroke-dasharray:none;stroke-opacity:1"
       d="M 101.79078,37.077506 A 408.25393,408.25382 0 0 0 73.620276,100.12477"
       inkscape:connector-curvature="0" />
    <path
       inkscape:connector-curvature="0"
       id="path1289"
       style="fill:none;stroke:#000000;stroke-width:0.2;stroke-linecap:round;stroke-linejoin:round;stroke-miterlimit:4;stroke-dasharray:none;stroke-opacity:1"
       d="m 73.620276,100.12477 0.48338,0.16857 m -0.48338,-65.03754 0.03303,-0.510863 m 27.859274,1.801573 0.56293,1.074448 M 73.653311,34.744937 101.51258,36.54651 m 0.56293,1.074448 A 407.742,407.74189 0 0 0 74.103656,100.29334 M 73.620276,35.2558 v 64.86897" />
    <path
       id="path1291"
       style="fill:none;stroke:#ff7e77;stroke-width:0.2;stroke-linecap:round;stroke-linejoin:round;stroke-miterlimit:4;stroke-dasharray:none;stroke-opacity:1"
       d="m 99.236462,36.912321 a 2.5596557,2.559655 0 0 0 1.323238,2.409352"
       inkscape:connector-curvature="0" />
    <path
       id="path1379"
       style="fill:none;stroke:#000000;stroke-width:0.2;stroke-linecap:round;stroke-linejoin:round;stroke-miterlimit:4;stroke-dasharray:none;stroke-opacity:1"
       d="m 78.502353,56.966817 h 6.370676"
       inkscape:connector-curvature="0" />
    <path
       id="path1381"
       style="fill:none;stroke:#000000;stroke-width:0.2;stroke-linecap:round;stroke-linejoin:round;stroke-miterlimit:4;stroke-dasharray:none;stroke-opacity:1"
       d="m 78.502353,57.876226 h 6.370676"
       inkscape:connector-curvature="0" />
    <path
       id="path1383"
       style="fill:none;stroke:#000000;stroke-width:0.2;stroke-linecap:round;stroke-linejoin:round;stroke-miterlimit:4;stroke-dasharray:none;stroke-opacity:1"
       d="M 82.597093,60.152162 V 53.78148"
       inkscape:connector-curvature="0" />
    <path
       id="path1385"
       style="fill:none;stroke:#000000;stroke-width:0.2;stroke-linecap:round;stroke-linejoin:round;stroke-miterlimit:4;stroke-dasharray:none;stroke-opacity:1"
       d="M 81.687691,60.152162 V 53.78148"
       inkscape:connector-curvature="0" />
    <path
       id="path1387"
       style="fill:none;stroke:#000000;stroke-width:0.2;stroke-linecap:round;stroke-linejoin:round;stroke-miterlimit:4;stroke-dasharray:none;stroke-opacity:1"
       d="M 80.77829,60.152162 V 53.78148"
       inkscape:connector-curvature="0" />
    <path
       id="path1389"
       style="fill:none;stroke:#000000;stroke-width:0.2;stroke-linecap:round;stroke-linejoin:round;stroke-miterlimit:4;stroke-dasharray:none;stroke-opacity:1"
       d="m 78.502353,56.057416 h 6.370676"
       inkscape:connector-curvature="0" />
    <path
       id="path1463"
       style="fill:none;stroke:#ff7e77;stroke-width:0.2;stroke-linecap:round;stroke-linejoin:round;stroke-miterlimit:4;stroke-dasharray:none;stroke-opacity:1"
       d="m 74.132208,35.288907 v 63.3767"
       inkscape:connector-curvature="0" />
    <path
       id="path2650"
       style="fill:#ffffff;stroke:none;stroke-width:0.26458332px;stroke-linecap:butt;stroke-linejoin:miter;stroke-opacity:1"
       d="m 118.3681,35.648726 3.48026,-4.836665 -4.19834,13.022691 z"
       inkscape:connector-curvature="0"
       sodipodi:nodetypes="cccc" />
    <path
       sodipodi:nodetypes="cccccccccccccsscccccsssscccccsccccsccccsccscc"
       inkscape:connector-curvature="0"
       d="m 173.2211,81.216838 c 1.77007,-8.813878 -0.94776,-17.931734 -7.25463,-24.338055 l 1.02533,-2.069774 C 151.34905,47.059869 135.14826,40.492354 118.52518,35.161492 l -0.87516,2.71461 v 66.349968 h 0.51193 c 0.48607,-0.95148 0.97214,-1.90296 1.46266,-2.85219 0.4806,-0.93001 0.96548,-1.857871 1.46266,-2.779054 0.47682,-0.883447 0.96496,-1.760765 1.46267,-2.632788 0.47672,-0.835259 0.96224,-1.66567 1.46266,-2.486522 0.47872,-0.785266 0.97109,-1.561784 1.46266,-2.340256 0.46967,-0.743814 0.93862,-1.489405 1.46266,-2.19399 0.46532,-0.625638 0.97408,-1.218937 1.46266,-1.828325 0.48858,-0.609388 0.95697,-1.234865 1.46266,-1.828325 0.46962,-0.55113 0.9714,-1.074645 1.46266,-1.608926 0.47916,-0.521124 0.9483,-1.052494 1.46266,-1.535793 0.46556,-0.437445 0.96817,-0.835508 1.46266,-1.243261 0.4825,-0.397865 0.95727,-0.80496 1.46266,-1.170128 0.47068,-0.34009 0.96791,-0.643826 1.46266,-0.950729 0.48375,-0.300087 0.96513,-0.603216 1.46266,-0.877596 0.47699,-0.263052 0.96882,-0.499688 1.46266,-0.73133 0.48436,-0.227195 0.97064,-0.449585 1.46266,-0.658197 0.48324,-0.204889 0.97202,-0.396491 1.46266,-0.585064 0.48265,-0.185502 0.96711,-0.368078 1.46266,-0.511931 0.48213,-0.139955 0.97475,-0.243262 1.46266,-0.365665 0.48791,-0.12241 0.9711,-0.263922 1.46266,-0.365665 0.48223,-0.09981 0.97252,-0.161361 1.46266,-0.219399 0.48714,-0.05769 0.97414,-0.111915 1.46266,-0.146266 0.48671,-0.03423 0.97493,-0.04872 1.46266,-0.07313 0.48773,-0.02441 0.97498,-0.05875 1.46266,-0.07313 0.48708,-0.01437 0.9746,-0.0088 1.46266,0 0.48868,0.0089 0.97789,0.02104 1.46266,0.07313 0.48959,0.0526 0.97466,0.145915 1.46266,0.219399 0.48801,0.07348 0.97894,0.127134 1.46267,0.219399 0.49309,0.09405 0.97868,0.228212 1.46266,0.365665 0.49019,0.139216 0.97873,0.281803 1.46266,0.438798 0.49109,0.15932 0.97744,0.333479 1.46266,0.511931 0.49325,0.181406 0.98532,0.367237 1.46266,0.585064 0.49551,0.22612 0.97514,0.486722 1.46266,0.73133 0.48752,0.244608 0.98293,0.473222 1.46266,0.73133 0.5004,0.269225 0.98373,0.570525 1.46266,0.877596 0.48981,0.314048 0.975,0.634122 1.46266,0.950729 0.48766,0.316607 0.97777,0.629748 1.46266,0.950729 0.14659,0.09703 0.29269,0.194782 0.4388,0.292532"
       style="fill:#ffffff;stroke:#000000;stroke-width:0.2;stroke-linecap:round;stroke-linejoin:round;stroke-miterlimit:4;stroke-dasharray:none;stroke-opacity:1"
       id="path2526" />
    <path
       id="path1321"
       style="fill:none;stroke:#ff7e77;stroke-width:0.2;stroke-linecap:round;stroke-linejoin:round;stroke-miterlimit:4;stroke-dasharray:none;stroke-opacity:1"
       d="m 117.65002,43.834752 4.19834,-13.022691"
       inkscape:connector-curvature="0" />
    <path
       id="path1323"
       style="fill:none;stroke:#ff7e77;stroke-width:0.2;stroke-linecap:round;stroke-linejoin:round;stroke-miterlimit:4;stroke-dasharray:none;stroke-opacity:1"
       d="m 118.3681,35.648726 3.48026,-4.836665"
       inkscape:connector-curvature="0" />
    <path
       id="path1299"
       style="fill:none;stroke:#ff7e77;stroke-width:0.2;stroke-linecap:round;stroke-linejoin:round;stroke-miterlimit:4;stroke-dasharray:none;stroke-opacity:1"
       d="M 172.71919,81.116039 A 26.576993,26.576986 0 0 0 165.72572,57.364781"
       inkscape:connector-curvature="0" />
    <path
       id="path1325"
       style="fill:none;stroke:#ff7e77;stroke-width:0.2;stroke-linecap:round;stroke-linejoin:round;stroke-miterlimit:4;stroke-dasharray:none;stroke-opacity:1"
       d="m 173.60308,78.713839 a 2.5596557,2.559655 0 0 0 -3.0266,1.001959"
       inkscape:connector-curvature="0" />
    <path
       id="path1295"
       style="fill:none;stroke:#ff7e77;stroke-width:0.2;stroke-linecap:round;stroke-linejoin:round;stroke-miterlimit:4;stroke-dasharray:none;stroke-opacity:1"
       d="M 118.16195,38.040702 V 104.22607"
       inkscape:connector-curvature="0" />
    <path
       id="path1899-3"
       d="m 117.73351,96.258975 h -10e-6 c 1.62498,-0.103668 3.0325,1.024625 3.23839,2.552951"
       style="opacity:1;vector-effect:none;fill:none;fill-opacity:1;stroke:#ff7e77;stroke-width:0.2;stroke-linecap:butt;stroke-linejoin:bevel;stroke-miterlimit:4;stroke-dasharray:none;stroke-dashoffset:0;stroke-opacity:1"
       inkscape:connector-curvature="0" />
    <path
       id="path1297"
       style="fill:none;stroke:#ff7e77;stroke-width:0.2;stroke-linecap:round;stroke-linejoin:round;stroke-miterlimit:4;stroke-dasharray:none;stroke-opacity:1"
       d="M 165.72572,57.364781 A 347.01618,347.01609 0 0 0 117.65002,37.876102"
       inkscape:connector-curvature="0" />
    <path
       id="path1303"
       style="fill:none;stroke:#da261d;stroke-width:0.2;stroke-linecap:round;stroke-linejoin:round;stroke-miterlimit:4;stroke-dasharray:none;stroke-opacity:1"
       d="M 166.24514,56.316258 A 348.18631,348.18621 0 0 0 118.00906,36.762418"
       inkscape:connector-curvature="0" />
    <path
       id="path1305"
       style="fill:none;stroke:#ff7e77;stroke-width:0.2;stroke-linecap:round;stroke-linejoin:round;stroke-miterlimit:4;stroke-dasharray:none;stroke-opacity:1"
       d="M 166.76456,55.267736 A 349.35644,349.35634 0 0 0 118.3681,35.648726"
       inkscape:connector-curvature="0" />
    <path
       id="path1313"
       style="fill:none;stroke:#000000;stroke-width:0.2;stroke-linecap:round;stroke-linejoin:round;stroke-miterlimit:4;stroke-dasharray:none;stroke-opacity:1"
       d="m 172.71919,81.116039 0.50191,0.100799"
       inkscape:connector-curvature="0" />
    <path
       id="path1319"
       style="fill:none;stroke:#000000;stroke-width:0.2;stroke-linecap:round;stroke-linejoin:round;stroke-miterlimit:4;stroke-dasharray:none;stroke-opacity:1"
       d="m 173.2211,81.216838 c 1.77007,-8.813878 -0.94776,-17.931734 -7.25463,-24.338055 m -0.24075,0.485998 1.26608,-2.555772 C 151.34905,47.059869 135.14826,40.492354 118.52518,35.161492 l -0.87516,2.71461 v 66.349968 h 0.51193 c 0.48607,-0.95148 0.97214,-1.90296 1.46266,-2.85219 0.4806,-0.93001 0.96548,-1.857871 1.46266,-2.779054 0.47682,-0.883447 0.96496,-1.760765 1.46267,-2.632788 0.47672,-0.835259 0.96224,-1.66567 1.46266,-2.486522 0.47872,-0.785266 0.97109,-1.561784 1.46266,-2.340256 0.46967,-0.743814 0.93862,-1.489405 1.46266,-2.19399 0.46532,-0.625638 0.97408,-1.218937 1.46266,-1.828325 0.48858,-0.609388 0.95697,-1.234865 1.46266,-1.828325 0.46962,-0.55113 0.9714,-1.074645 1.46266,-1.608926 0.47916,-0.521124 0.9483,-1.052494 1.46266,-1.535793 0.46556,-0.437445 0.96817,-0.835508 1.46266,-1.243261 0.4825,-0.397865 0.95727,-0.80496 1.46266,-1.170128 0.47068,-0.34009 0.96791,-0.643826 1.46266,-0.950729 0.48375,-0.300087 0.96513,-0.603216 1.46266,-0.877596 0.47699,-0.263052 0.96882,-0.499688 1.46266,-0.73133 0.48436,-0.227195 0.97064,-0.449585 1.46266,-0.658197 0.48324,-0.204889 0.97202,-0.396491 1.46266,-0.585064 0.48265,-0.185502 0.96711,-0.368078 1.46266,-0.511931 0.48213,-0.139955 0.97475,-0.243262 1.46266,-0.365665 0.48791,-0.12241 0.9711,-0.263922 1.46266,-0.365665 0.48223,-0.09981 0.97252,-0.161361 1.46266,-0.219399 0.48714,-0.05769 0.97414,-0.111915 1.46266,-0.146266 0.48671,-0.03423 0.97493,-0.04872 1.46266,-0.07313 0.48773,-0.02441 0.97498,-0.05875 1.46266,-0.07313 0.48708,-0.01437 0.9746,-0.0088 1.46266,0 0.48868,0.0089 0.97789,0.02104 1.46266,0.07313 0.48959,0.0526 0.97466,0.145915 1.46266,0.219399 0.48801,0.07348 0.97894,0.127134 1.46267,0.219399 0.49309,0.09405 0.97868,0.228212 1.46266,0.365665 0.49019,0.139216 0.97873,0.281803 1.46266,0.438798 0.49109,0.15932 0.97744,0.333479 1.46266,0.511931 0.49325,0.181406 0.98532,0.367237 1.46266,0.585064 0.49551,0.22612 0.97514,0.486722 1.46266,0.73133 0.48752,0.244608 0.98293,0.473222 1.46266,0.73133 0.5004,0.269225 0.98373,0.570525 1.46266,0.877596 0.48981,0.314048 0.975,0.634122 1.46266,0.950729 0.48766,0.316607 0.97777,0.629748 1.46266,0.950729 0.14659,0.09703 0.29269,0.194782 0.4388,0.292532"
       inkscape:connector-curvature="0"
       sodipodi:nodetypes="ccccccccccccccsscccccsssscccccsccccsccccsccscc" />
    <path
       id="path1391"
       style="fill:none;stroke:#000000;stroke-width:0.2;stroke-linecap:round;stroke-linejoin:round;stroke-miterlimit:4;stroke-dasharray:none;stroke-opacity:1"
       d="m 121.54657,64.119184 h 6.37067"
       inkscape:connector-curvature="0" />
    <path
       id="path1393"
       style="fill:none;stroke:#000000;stroke-width:0.2;stroke-linecap:round;stroke-linejoin:round;stroke-miterlimit:4;stroke-dasharray:none;stroke-opacity:1"
       d="m 121.54657,65.028585 h 6.37067"
       inkscape:connector-curvature="0" />
    <path
       id="path1395"
       style="fill:none;stroke:#000000;stroke-width:0.2;stroke-linecap:round;stroke-linejoin:round;stroke-miterlimit:4;stroke-dasharray:none;stroke-opacity:1"
       d="M 125.64131,67.304521 V 60.933847"
       inkscape:connector-curvature="0" />
    <path
       id="path1397"
       style="fill:none;stroke:#000000;stroke-width:0.2;stroke-linecap:round;stroke-linejoin:round;stroke-miterlimit:4;stroke-dasharray:none;stroke-opacity:1"
       d="M 124.73191,67.304521 V 60.933847"
       inkscape:connector-curvature="0" />
    <path
       id="path1399"
       style="fill:none;stroke:#000000;stroke-width:0.2;stroke-linecap:round;stroke-linejoin:round;stroke-miterlimit:4;stroke-dasharray:none;stroke-opacity:1"
       d="M 123.82251,67.304521 V 60.933847"
       inkscape:connector-curvature="0" />
    <path
       id="path1401"
       style="fill:none;stroke:#000000;stroke-width:0.2;stroke-linecap:round;stroke-linejoin:round;stroke-miterlimit:4;stroke-dasharray:none;stroke-opacity:1"
       d="m 121.54657,63.209782 h 6.37067"
       inkscape:connector-curvature="0" />
    <path
       id="path2518"
       style="fill:#ffffff;stroke:#000000;stroke-width:0.2;stroke-linecap:round;stroke-linejoin:round;stroke-miterlimit:4;stroke-dasharray:none;stroke-opacity:1"
       d="m 30.254415,33.585386 0.0991,-0.511931 h 27.592342 l 0.0991,0.511931 -13.237076,68.379354 h -1.316394 z"
       inkscape:connector-curvature="0"
       sodipodi:nodetypes="ccccccc" />
    <path
       style="opacity:1;vector-effect:none;fill:none;fill-opacity:1;stroke:#ff7e77;stroke-width:0.2;stroke-linecap:butt;stroke-linejoin:miter;stroke-miterlimit:4;stroke-dasharray:none;stroke-dashoffset:0;stroke-opacity:1"
       d="M 57.454304,36.608417 C 55.919113,36.496879 54.706993,35.165551 54.706993,33.539612"
       id="path1859"
       inkscape:connector-curvature="0" />
    <path
       style="opacity:1;vector-effect:none;fill:none;fill-opacity:1;stroke:#ff7e77;stroke-width:0.2;stroke-linecap:butt;stroke-linejoin:miter;stroke-miterlimit:4;stroke-dasharray:none;stroke-dashoffset:0;stroke-opacity:1"
       d="m 33.615768,33.574702 v -1.2e-5 c 0,1.628284 -1.215618,2.961106 -2.753953,3.06928"
       id="path1854"
       inkscape:connector-curvature="0" />
    <path
       id="path1261"
       style="fill:none;stroke:#ff7e77;stroke-width:0.2;stroke-linecap:round;stroke-linejoin:round;stroke-miterlimit:4;stroke-dasharray:none;stroke-opacity:1"
       d="M 30.254413,33.585386 H 58.044961"
       inkscape:connector-curvature="0" />
    <path
       id="path1263"
       style="fill:none;stroke:#000000;stroke-width:0.2;stroke-linecap:round;stroke-linejoin:round;stroke-miterlimit:4;stroke-dasharray:none;stroke-opacity:1"
       d="M 30.353516,33.073455 H 57.945858"
       inkscape:connector-curvature="0" />
    <path
       id="path1265"
       style="fill:none;stroke:#000000;stroke-width:0.2;stroke-linecap:round;stroke-linejoin:round;stroke-miterlimit:4;stroke-dasharray:none;stroke-opacity:1"
       d="m 43.49149,101.96474 h 1.316394"
       inkscape:connector-curvature="0" />
    <path
       id="path1267"
       style="fill:none;stroke:#000000;stroke-width:0.2;stroke-linecap:round;stroke-linejoin:round;stroke-miterlimit:4;stroke-dasharray:none;stroke-opacity:1"
       d="M 43.49149,101.96474 30.254413,33.585386"
       inkscape:connector-curvature="0" />
    <path
       id="path1269"
       style="fill:none;stroke:#000000;stroke-width:0.2;stroke-linecap:round;stroke-linejoin:round;stroke-miterlimit:4;stroke-dasharray:none;stroke-opacity:1"
       d="M 44.807884,101.96474 58.044961,33.585386"
       inkscape:connector-curvature="0" />
    <path
       id="path1271"
       style="fill:none;stroke:#000000;stroke-width:0.2;stroke-linecap:round;stroke-linejoin:round;stroke-miterlimit:4;stroke-dasharray:none;stroke-opacity:1"
       d="m 30.353516,33.073455 -0.0991,0.511931"
       inkscape:connector-curvature="0" />
    <path
       id="path1273"
       style="fill:none;stroke:#000000;stroke-width:0.2;stroke-linecap:round;stroke-linejoin:round;stroke-miterlimit:4;stroke-dasharray:none;stroke-opacity:1"
       d="m 57.945858,33.073455 0.0991,0.511931"
       inkscape:connector-curvature="0" />
    <path
       id="path1367"
       style="fill:none;stroke:#000000;stroke-width:0.2;stroke-linecap:round;stroke-linejoin:round;stroke-miterlimit:4;stroke-dasharray:none;stroke-opacity:1"
       d="m 40.964349,47.945553 h 6.370676"
       inkscape:connector-curvature="0" />
    <path
       id="path1369"
       style="fill:none;stroke:#000000;stroke-width:0.2;stroke-linecap:round;stroke-linejoin:round;stroke-miterlimit:4;stroke-dasharray:none;stroke-opacity:1"
       d="m 40.964349,48.854962 h 6.370676"
       inkscape:connector-curvature="0" />
    <path
       id="path1371"
       style="fill:none;stroke:#000000;stroke-width:0.2;stroke-linecap:round;stroke-linejoin:round;stroke-miterlimit:4;stroke-dasharray:none;stroke-opacity:1"
       d="M 45.059089,51.130898 V 44.760216"
       inkscape:connector-curvature="0" />
    <path
       id="path1373"
       style="fill:none;stroke:#000000;stroke-width:0.2;stroke-linecap:round;stroke-linejoin:round;stroke-miterlimit:4;stroke-dasharray:none;stroke-opacity:1"
       d="M 44.149687,51.130898 V 44.760216"
       inkscape:connector-curvature="0" />
    <path
       id="path1375"
       style="fill:none;stroke:#000000;stroke-width:0.2;stroke-linecap:round;stroke-linejoin:round;stroke-miterlimit:4;stroke-dasharray:none;stroke-opacity:1"
       d="M 43.240285,51.130898 V 44.760216"
       inkscape:connector-curvature="0" />
    <path
       id="path1377"
       style="fill:none;stroke:#000000;stroke-width:0.2;stroke-linecap:round;stroke-linejoin:round;stroke-miterlimit:4;stroke-dasharray:none;stroke-opacity:1"
       d="m 40.964349,47.036152 h 6.370676"
       inkscape:connector-curvature="0" />
    <path
       id="path1899"
       d="m 42.112859,94.630126 -8e-6,8e-6 c 1.173037,-1.129288 2.976307,-1.177913 4.121139,-0.144697"
       style="opacity:1;vector-effect:none;fill:none;fill-opacity:1;stroke:#ff7e77;stroke-width:0.2;stroke-linecap:butt;stroke-linejoin:bevel;stroke-miterlimit:4;stroke-dasharray:none;stroke-dashoffset:0;stroke-opacity:1"
       inkscape:connector-curvature="0" />
    <text
       xml:space="preserve"
       style="font-style:normal;font-variant:normal;font-weight:normal;font-stretch:normal;font-size:16.93333244px;line-height:1.25;font-family:Delicious;-inkscape-font-specification:Delicious;letter-spacing:0px;word-spacing:0px;fill:#000000;fill-opacity:1;stroke:none;stroke-width:0.26458332"
       x="76.542931"
       y="40.122742"
       id="text1885"><tspan
         sodipodi:role="line"
         id="tspan1883"
         x="76.542931"
         y="40.122742"
         style="font-size:3.17499995px;stroke-width:0.26458332">Q1</tspan></text>
    <text
       id="text1889"
       y="40.590466"
       x="94.895042"
       style="font-style:normal;font-variant:normal;font-weight:normal;font-stretch:normal;font-size:16.93333244px;line-height:1.25;font-family:Delicious;-inkscape-font-specification:Delicious;letter-spacing:0px;word-spacing:0px;fill:#000000;fill-opacity:1;stroke:none;stroke-width:0.26458332"
       xml:space="preserve"><tspan
         style="font-size:3.17499995px;stroke-width:0.26458332"
         y="40.590466"
         x="94.895042"
         id="tspan1887"
         sodipodi:role="line">Q2</tspan></text>
    <text
       id="text1893"
       y="94.504105"
       x="79.03653"
       style="font-style:normal;font-variant:normal;font-weight:normal;font-stretch:normal;font-size:16.93333244px;line-height:1.25;font-family:Delicious;-inkscape-font-specification:Delicious;letter-spacing:0px;word-spacing:0px;fill:#000000;fill-opacity:1;stroke:none;stroke-width:0.26458332"
       xml:space="preserve"><tspan
         style="font-size:3.17499995px;stroke-width:0.26458332"
         y="94.504105"
         x="79.03653"
         id="tspan1891"
         sodipodi:role="line">Q3</tspan></text>
    <text
       id="text1893-6"
       y="101.8987"
       x="122.38478"
       style="font-style:normal;font-variant:normal;font-weight:normal;font-stretch:normal;font-size:16.93333244px;line-height:1.25;font-family:Delicious;-inkscape-font-specification:Delicious;letter-spacing:0px;word-spacing:0px;fill:#000000;fill-opacity:1;stroke:none;stroke-width:0.26458332"
       xml:space="preserve"><tspan
         style="font-size:3.17499995px;stroke-width:0.26458332"
         y="101.8987"
         x="122.38478"
         id="tspan1891-7"
         sodipodi:role="line">A4</tspan></text>
    <text
       id="text1893-6-5"
       y="76.160606"
       x="168.06172"
       style="font-style:normal;font-variant:normal;font-weight:normal;font-stretch:normal;font-size:16.93333244px;line-height:1.25;font-family:Delicious;-inkscape-font-specification:Delicious;letter-spacing:0px;word-spacing:0px;fill:#000000;fill-opacity:1;stroke:none;stroke-width:0.26458332"
       xml:space="preserve"><tspan
         style="font-size:3.17499995px;stroke-width:0.26458332"
         y="76.160606"
         x="168.06172"
         id="tspan1891-7-3"
         sodipodi:role="line">A3</tspan></text>
    <text
       id="text1893-6-56"
       y="61.661469"
       x="161.50194"
       style="font-style:normal;font-variant:normal;font-weight:normal;font-stretch:normal;font-size:16.93333244px;line-height:1.25;font-family:Delicious;-inkscape-font-specification:Delicious;letter-spacing:0px;word-spacing:0px;fill:#000000;fill-opacity:1;stroke:none;stroke-width:0.26458332"
       xml:space="preserve"><tspan
         style="font-size:3.17499995px;stroke-width:0.26458332"
         y="61.661469"
         x="161.50194"
         id="tspan1891-7-2"
         sodipodi:role="line">A2</tspan></text>
    <text
       id="text1893-6-9"
       y="43.007835"
       x="120.31824"
       style="font-style:normal;font-variant:normal;font-weight:normal;font-stretch:normal;font-size:16.93333244px;line-height:1.25;font-family:Delicious;-inkscape-font-specification:Delicious;letter-spacing:0px;word-spacing:0px;fill:#000000;fill-opacity:1;stroke:none;stroke-width:0.26458332"
       xml:space="preserve"><tspan
         style="font-size:3.17499995px;stroke-width:0.26458332"
         y="43.007835"
         x="120.31824"
         id="tspan1891-7-1"
         sodipodi:role="line">A1</tspan></text>
    <text
       xml:space="preserve"
       style="font-style:normal;font-variant:normal;font-weight:normal;font-stretch:normal;font-size:16.93333244px;line-height:1.25;font-family:Delicious;-inkscape-font-specification:Delicious;letter-spacing:0px;word-spacing:0px;fill:#da261d;fill-opacity:1;stroke:none;stroke-width:0.26458332"
       x="168.58984"
       y="56.754063"
       id="text1972"><tspan
         sodipodi:role="line"
         id="tspan1970"
         x="168.58984"
         y="56.754063"
         style="font-size:3.17499995px;fill:#da261d;stroke-width:0.26458332">Faltlinie</tspan></text>
    <text
       xml:space="preserve"
       style="font-style:normal;font-variant:normal;font-weight:normal;font-stretch:normal;font-size:16.93333244px;line-height:1.25;font-family:Delicious;-inkscape-font-specification:Delicious;letter-spacing:0px;word-spacing:0px;fill:#000000;fill-opacity:1;stroke:none;stroke-width:0.26458332"
       x="34.448845"
       y="38.092823"
       id="text1863"><tspan
         sodipodi:role="line"
         id="tspan1861"
         x="34.448845"
         y="38.092823"
         style="font-size:3.17499995px;stroke-width:0.26458332">C2</tspan></text>
    <text
       id="text1867"
       y="38.092823"
       x="50.853027"
       style="font-style:normal;font-variant:normal;font-weight:normal;font-stretch:normal;font-size:16.93333244px;line-height:1.25;font-family:Delicious;-inkscape-font-specification:Delicious;letter-spacing:0px;word-spacing:0px;fill:#000000;fill-opacity:1;stroke:none;stroke-width:0.26458332"
       xml:space="preserve"><tspan
         style="font-size:3.17499995px;stroke-width:0.26458332"
         y="38.092823"
         x="50.853027"
         id="tspan1865"
         sodipodi:role="line">C3</tspan></text>
    <text
       xml:space="preserve"
       style="font-style:normal;font-variant:normal;font-weight:normal;font-stretch:normal;font-size:16.93333244px;line-height:1.25;font-family:Delicious;-inkscape-font-specification:Delicious;letter-spacing:0px;word-spacing:0px;fill:#000000;fill-opacity:1;stroke:none;stroke-width:0.26458332"
       x="48.184261"
       y="98.399574"
       id="text1897"><tspan
         sodipodi:role="line"
         id="tspan1895"
         x="48.184261"
         y="98.399574"
         style="font-size:3.17499995px;stroke-width:0.26458332">C1</tspan></text>
    <text
       xml:space="preserve"
       style="font-style:normal;font-variant:normal;font-weight:normal;font-stretch:normal;font-size:3.88055563px;line-height:1.25;font-family:Delicious;-inkscape-font-specification:Delicious;letter-spacing:0px;word-spacing:0px;fill:#000000;fill-opacity:1;stroke:none;stroke-width:0.26458332"
       x="40.069771"
       y="30.116568"
       id="text2687"><tspan
         sodipodi:role="line"
         id="tspan2685"
         x="40.069771"
         y="30.116568"
         style="stroke-width:0.26458332">Mitte</tspan></text>
    <text
       xml:space="preserve"
       style="font-style:normal;font-variant:normal;font-weight:normal;font-stretch:normal;font-size:3.88055563px;line-height:1.25;font-family:Delicious;-inkscape-font-specification:Delicious;letter-spacing:0px;word-spacing:0px;fill:#000000;fill-opacity:1;stroke:none;stroke-width:0.26458332"
       x="85.027603"
       y="30.170897"
       id="text2691"><tspan
         sodipodi:role="line"
         id="tspan2689"
         x="85.027603"
         y="30.170897"
         style="stroke-width:0.26458332">Kiel</tspan></text>
    <text
       xml:space="preserve"
       style="font-style:normal;font-variant:normal;font-weight:normal;font-stretch:normal;font-size:3.88055563px;line-height:1.25;font-family:Delicious;-inkscape-font-specification:Delicious;letter-spacing:0px;word-spacing:0px;fill:#000000;fill-opacity:1;stroke:none;stroke-width:0.26458332"
       x="142.84068"
       y="30.170897"
       id="text2695"><tspan
         sodipodi:role="line"
         id="tspan2693"
         x="142.84068"
         y="30.170897"
         style="stroke-width:0.26458332">Flügel</tspan></text>
    <text
       xml:space="preserve"
       style="font-style:normal;font-variant:normal;font-weight:normal;font-stretch:normal;font-size:3.88055563px;line-height:1.25;font-family:Delicious;-inkscape-font-specification:Delicious;letter-spacing:0px;word-spacing:0px;fill:#000000;fill-opacity:1;stroke:none;stroke-width:0.26458332"
       x="40.913414"
       y="66.67823"
       id="text2699"><tspan
         sodipodi:role="line"
         id="tspan2697"
         x="40.913414"
         y="66.67823"
         style="stroke-width:0.26458332">1x</tspan></text>
    <text
       xml:space="preserve"
       style="font-style:normal;font-variant:normal;font-weight:normal;font-stretch:normal;font-size:3.88055563px;line-height:1.25;font-family:Delicious;-inkscape-font-specification:Delicious;letter-spacing:0px;word-spacing:0px;fill:#000000;fill-opacity:1;stroke:none;stroke-width:0.26458332"
       x="77.01403"
       y="66.67823"
       id="text2703"><tspan
         sodipodi:role="line"
         id="tspan2701"
         x="77.01403"
         y="66.67823"
         style="stroke-width:0.26458332">2x</tspan></text>
    <text
       xml:space="preserve"
       style="font-style:normal;font-variant:normal;font-weight:normal;font-stretch:normal;font-size:3.88055563px;line-height:1.25;font-family:Delicious;-inkscape-font-specification:Delicious;letter-spacing:0px;word-spacing:0px;fill:#000000;fill-opacity:1;stroke:none;stroke-width:0.26458332"
       x="139.35905"
       y="64.858681"
       id="text2707"><tspan
         sodipodi:role="line"
         id="tspan2705"
         x="139.35905"
         y="64.858681"
         style="stroke-width:0.26458332">2x</tspan></text>
  </g>
</svg>
